<?xml version="1.0" encoding="utf-8"?>
<!-- Generator: Adobe Illustrator 14.0.0, SVG Export Plug-In . SVG Version: 6.00 Build 43363)  -->
<!DOCTYPE svg PUBLIC "-//W3C//DTD SVG 1.1//EN" "http://www.w3.org/Graphics/SVG/1.1/DTD/svg11.dtd">
<svg version="1.1"
	 id="Layer_1" xmlns:dc="http://purl.org/dc/elements/1.1/" xmlns:cc="http://creativecommons.org/ns#" xmlns:rdf="http://www.w3.org/1999/02/22-rdf-syntax-ns#" xmlns:svg="http://www.w3.org/2000/svg" xmlns:sodipodi="http://sodipodi.sourceforge.net/DTD/sodipodi-0.dtd" xmlns:inkscape="http://www.inkscape.org/namespaces/inkscape" inkscape:version="0.91 r13725" sodipodi:docname="file_icon.svg"
	 xmlns="http://www.w3.org/2000/svg" xmlns:xlink="http://www.w3.org/1999/xlink" x="0px" y="0px" width="44px" height="48px"
	 viewBox="0 -2.25 44 48" enable-background="new 0 -2.25 44 48" xml:space="preserve">
<sodipodi:namedview  id="namedview9" guidetolerance="10" gridtolerance="10" objecttolerance="10" showgrid="false" borderopacity="1" bordercolor="#666666" pagecolor="#ffffff" inkscape:current-layer="Layer_1" inkscape:window-y="250" inkscape:window-x="809" inkscape:window-height="480" inkscape:window-width="672" inkscape:pageshadow="2" inkscape:pageopacity="0" inkscape:window-maximized="0" inkscape:cy="21.75" inkscape:cx="22" inkscape:zoom="5.4252874">
	</sodipodi:namedview>
<line id="line3" fill="none" stroke="#F3B700" stroke-width="3" x1="10.313" y1="12.75" x2="35.813" y2="12.75"/>
<line id="line5" fill="none" stroke="#F3B700" stroke-width="3" x1="10.313" y1="21.75" x2="35.813" y2="21.75"/>
<line id="line7" fill="none" stroke="#F3B700" stroke-width="3" x1="10.313" y1="30.75" x2="35.813" y2="30.75"/>
</svg>
